^C:\USERS\SOHRAB\DOCUMENTS\VISUAL STUDIO 2010\PROJECTS\LOKISAPRJ\LOKISAPRJ\SHOW.CPP
C:\USERS\SOHRAB\DOCUMENTS\VISUAL STUDIO 2010\PROJECTS\LOKISAPRJ\LOKISAPRJ\DEBUG\SHOW.OBJ
C:\USERS\SOHRAB\DOCUMENTS\VISUAL STUDIO 2010\PROJECTS\LOKISAPRJ\LOKISAPRJ\DEBUG\VC100.PDB
