^C:\USERS\SOHRAB\DOCUMENTS\VISUAL STUDIO 2010\PROJECTS\LOKISAPRJ\LOKISAPRJ\DEBUG\SHOW.OBJ
C:\USERS\SOHRAB\DOCUMENTS\VISUAL STUDIO 2010\PROJECTS\LOKISAPRJ\DEBUG\LOKISAPRJ.ILK
C:\USERS\SOHRAB\DOCUMENTS\VISUAL STUDIO 2010\PROJECTS\LOKISAPRJ\DEBUG\LOKISAPRJ.EXE
C:\USERS\SOHRAB\DOCUMENTS\VISUAL STUDIO 2010\PROJECTS\LOKISAPRJ\LOKISAPRJ\DEBUG\LOKISAPRJ.EXE.INTERMEDIATE.MANIFEST
C:\USERS\SOHRAB\DOCUMENTS\VISUAL STUDIO 2010\PROJECTS\LOKISAPRJ\DEBUG\LOKISAPRJ.PDB
